C:\Users\suzuki.azumi\workspace\BatchSample\src\test\java\jp\co\kenshu\ExampleItemReaderTests.java
C:\Users\suzuki.azumi\workspace\BatchSample\src\test\java\jp\co\kenshu\ExampleItemWriterTests.java
C:\Users\suzuki.azumi\workspace\BatchSample\src\test\java\jp\co\kenshu\ExampleJobConfigurationTests.java
